Knochenlücken,Diastasen
Knirschen der Bruchstelle,Krepitation
Bluthusten,Hämoptyse
Verstauchung,Distorsion
Prellung,Kontusion
Hypoperfusion,Minderdurchblutung
Großhirn,Telencephalon
Großhrinrinde,Cortex
Kleinhirn,Cerebellum
Epiglottitis,Kehldeckelentzündung
Bluterbrechen,Hämatemesis
Herzstolpern,Palpitationen
zwischen Zellen,im Interstitium
Prodomalsymptome,Aura
postiktaler Dämmerzustand,Nachschlafphase beim Krampfanfall
Obstipation,Verstopfung
SARS (deutsch),Schweres Akutes Respiratorisches Syndrom
SARS (englisch),severe acute respiratory syndrome
Zwischenhirn,Diencephalon
Osteomyelitis,Knochenmarksentzündung
Glaukom,Grüner Star
Katarakt,Grauer Star
Alterssichtigkeit,Presbyopie
Schwerhörigkeit im Alter,Presbyakusis
Lebensmittelvergiftung,Gastroenteritis
Frailty,Multifaktorielles geriatrisches Syndrom
Oberhaut,Epidermis
Lederhaut,Dermis
Unterhaut,Subcutis
Röhrenknochen,Ossa longa
Platte Knochen,Ossa plana
kurze Knochen,Ossa brevia
luftgefüllte Knochen,Ossa pneumatica
unregelmäßige Knochen,Ossa irregularia
Knochenhaut,Periost
Pharynx,Rachen
Speiseröhre,Ösophagus
Magenausgang,Pförtner
Luxation,Verrenkung
Lungenentzündung,Pneumonie
gerichtete Ängste,Phobien
ungerichtete Ängste,Panikstörung
Nasenbluten,Epistaxis
Unterkühlung,Hypothermie
Sarkophenie,Muskelschwund
Multimorbidität,Mehrere behandlungsbedürftige Erkrankungen
Fehlgeburt,Abortus
Darmverschluss,Illeus
Myokard,Herzmuskel
Atrioventrikularknoten,AV-Knoten
anterior,vorn liegend
posterior,hinten liegend
inferior,unten liegend
superior,oben liegend
ventral,vorn liegend
dorsal,hinten liegend
kaudal,unten liegend
kranial,oben liegend
Hypästhesie,herabgesetzte Empfindlichkeit der Haut
Blutstuhl/Teerstuhl,Melaena
Harnleiter,Ureter
Harnröhre,Urethra
Hämaturie,Blut im Harn 
Erythrozyten,Rote Blutkörperchen
Aszites,Ansammlung von Flüssigkeit in der freien Bauchhöhle
Atelektase,kollabierter Lungenabschnitt
Schaufensterkrankheit,Claudicatio intermittens
Ulcus ventriculi,Magengeschwür
Vaskulitis,Gefäßentzündung
Vertigo,Schwindel
Zystitis,Blasenentzündung
Lumbago,Rückenschmerz
Mammakarzinom,Brustkrebs
Osteoporose,Knochenschwund
Orchitis,Hodenentzündung
Peritonitis,Bauchfellentzündung
Pankreatitis,Bauchspeicheldrüsenentzündung
Perikarditis,Herzbeutelenzündung
Rhinitis,Heuschnupfen
Urtikaria,Nesselsucht
Konjunktivitis,Bindehautentzündung
Priapismus,Dauererektion
ROSC,Return of spontaneous circulation
paravasal,am Gefäß vorbei
Miosis,engestellte Pupillen
Mydriasis,weitgestellte Pupillen
Atemzugvolumen,Tidalvolumen
Asphyxie,Atemstillstand/Erstickung
Thrombektomie,operative Entfernung eines Thrombus aus einem Blutgefäß
Thrombus,Blutgerinsel
Embolus,körpereigenes oder körperfremdes Objekt das im Gefäßsystem zur Verengung des Lumens führt
intravenös,direkt in die Vene
sublingual,unter die Zunge
intramuskulär,in den Muskel
intraossär,in den Knochen 
subkutan,unter die Haut
rektal,über den Mastdarm
transdermal,über die Haut
enteral,Zufuhr über den Magen-Darm Trakt
mucosa,Schleimhaut
HIV,Human Immunodeficiency Virus
AIDS,Acquired Immune Deficiency Syndrome
Leukozyten,weiße Blutkörperchen
Thrombozyten,Blutplättchen
Ventrikel,Herzkammer
Atrium,Herzvorhof
Herzscheidewand,Septum
Azidose,Übersäuerung
Regenbogenhaut,Iris
Netzhaut,Retina
häufiges Wasserlassen,Polyurie
nächtliches Wasserlassen,Nykturie
IDDM,Insulin Dependent Diabetes Mellitus
NIDDM,Non Insulin Dependent Diabetes Mellitus
Exanthem,Hautausschlag (Masern od. Allergie)
Orthopnoe,Dyspnoe mit nötigem Einsatz der Atemhilfsmuskulatur in aufrechter Haltung
COPD,Chronic Obstructive Pulmonary Disease
Schlaganfall,Apoplex
Schwäche,Parese
Lähmung,Plegie
Gefühlsstörung,Parästhesie
PRIND,Progredientes Reversibles Ischämisches Neurologisches Defizit
TIA,Transitorische Ischämische Attacke
Gallenblasenentzündung,Cholezystitis
Dickdarmentzündung,Divertikulitis
intestinal,den Darm betreffend
Gastrointestinal,den Magen-Darm-Trakt betreffend
Zwölffingerdarm,Duodenum
Hämatochezie,Rektalblutung
Hypoxämie,Sauertstoffmangel im Blut
Gehirnerschütterung,Commotio Cerebri
Gehirnprellung,Contusio Cerebri
Gehirnquetschung,Compressio Cerebri
Lungenparenchym,Lungengewebe
Oberarmknochen,Humerus
Oberschenkelknochen,Femur
Commotio,Erschütterung
Compressio,Quetschung
Dens,2. Halswirbel
Epidermis + Dermis,Cutis
Atrophie,Gewebeschwund
Phlebothrombose,thrombotischer Verschluss tiefer Venen
Tonsillektomie,Mandeloperation
Contusio bulbi,Augapfelprellung
Hyperämie,übermäßiges Blutangebot in einem Organ oder Gewebe
Bindehautschwellung,Chemosis
Epiphora,Triefauge
Phimose,Vorhautverengung
Hypermenorrhö,verstärkte Regelblutung
Extrautaringravidität,Befruchtete Eizelle außerhalb der Gebärmutter
Tubaria,Eileiterschwangerschaft
Proteinurie,Eiweiß im Urin
Gestosen,Krankheiten in der Schwangerschaft mit unklarer Ursache
Vergiftungszentrale,01/4064343
Keratoconjunctivitis epidemica,hochansteckende virale Bindehautentzündung
Flush,anfallsweise auftretende Rötung (Erythem) der Haut
Phosphodiesterasehemmern,z.B. Viagra Levitra oder Cialis
Erysipel,Rotlauf
Endophthalmitis,Glaskörperabszess
Ulcus Cruris,Unterschenkelgeschwür
Tentorium cerebelli,Kleinhirnzelt
Foramen magnum,Großes Hinterhauptsloch
Singultus,Schluckauf
SIMV,Syncronized Intermittent Mandatory Ventilation
CPAP,Continuous Positive Airway Pressure
IPPV,Intermittent Positive Pressure Ventilation
SIPPV, Synchronized Intermittent Positive Pressure Ventilation
PEEP,Positive End Exspiratory Pressure
Acute Respiratory Distress Syndrome (ARDS),Akutes Lungenversagen